Proyecto 1: Análisis Exploratorio de Datos
…
#PREGUNTAS DE INVESTIGACION 1. ¿Es más frecuente el divorcio en las
áreas más urbanas?

## # A tibble: 22 × 2
##    depocu             n
##    <fct>          <int>
##  1 Guatemala      24378
##  2 Quetzaltenango  5115
##  3 Escuintla       3305
##  4 San Marcos      2915
##  5 Jutiapa         2795
##  6 Suchitepequez   2377
##  7 Huehuetenango   2321
##  8 Izabal          2094
##  9 Santa Rosa      1953
## 10 Retalhuleu      1920
## # ℹ 12 more rows
…
## # A tibble: 35 × 4
## # Groups:   eschom [6]
##    eschom   escmuj            n     prop
##    <fct>    <fct>         <int>    <dbl>
##  1 Ninguno  Ninguno        4823 0.730   
##  2 Ninguno  Primaria        702 0.106   
##  3 Ninguno  Básico          333 0.0504  
##  4 Ninguno  Diversificado   590 0.0893  
##  5 Ninguno  Universitario   151 0.0229  
##  6 Ninguno  Postgrado         5 0.000757
##  7 Primaria Ninguno         873 0.156   
##  8 Primaria Primaria       2610 0.465   
##  9 Primaria Básico         1009 0.180   
## 10 Primaria Diversificado  1035 0.185   
## # ℹ 25 more rows
…
